17
0.593825666	0.684624697	0.775423729	0.884382567	0.972154964	1	0.972154964	0.884382567	0.717917676	0.515133172	0.37590799	0.260895884	0.188256659	0.139830508	0.097457627	0.05811138	0.030871671
370	380	390	400	410	420	430	440	450	460	470	480	490	500	510	520	530
26
0.357748184	0.366828087	0.351694915	0.345641646	0.357748184	0.384987893	0.427360775	0.5	0.578692494	0.684624697	0.790556901	0.887409201	0.963075061	0.999697337	0.996368039	0.944915254	0.835956416	0.699757869	0.542372881	0.412227603	0.303268765	0.212469734	0.151937046	0.103510896	0.070217918	0.049031477
400	410	420	430	440	450	460	470	480	490	500	510	520	530	540	550	560	570	580	590	600	610	620	630	640	650
29
0.372881356	0.351694915	0.330508475	0.3062954	0.297215496	0.282082324	0.3062954	0.345641646	0.409200969	0.484866828	0.569612591	0.642251816	0.748184019	0.842009685	0.923728814	0.978208232	1	0.996368039	0.950968523	0.863196126	0.763317191	0.627118644	0.484866828	0.345641646	0.273002421	0.179176755	0.103510896	0.079297821	0.067191283
400	410	420	430	440	450	460	470	480	490	500	510	520	530	540	550	560	570	580	590	600	610	620	630	640	650	660	670	680