370	502	0.008672687689244429
371	502	0.008804599112482043
372	503	0.008930647808857804
373	504	0.009064513478579637
374	504	0.009203753314208135
375	505	0.009330779132292508
376	506	0.009465621923722937
377	507	0.00960828168849947
378	513	0.009643458100235596
379	514	0.009480115935087036
380	514	0.00932133366211165
381	515	0.00915204733828479
382	516	0.008992695084469439
383	516	0.008838798418530533
384	517	0.008673502007637618
385	518	0.00851813966675617
386	523	0.00816560821460536
387	524	0.007800414479506233
388	525	0.00744614048628968
389	526	0.007102786234955738
390	527	0.006770351725504375
391	527	0.006376302983276891
392	553	0.005961585402039136
393	547	0.005202134691239508
394	547	0.004487614468197322
395	547	0.0038258588157254023
396	547	0.0032168677338237513
397	547	0.0026606412224923666
398	547	0.0021571792817312394
399	547	0.0017064819115403904
400	497	0.006737396426601314
401	498	0.007040731638138695
402	498	0.0073389166031922574
403	499	0.007646526722300664
404	499	0.007971256825847189
405	500	0.008283141852526621
406	500	0.008634417094566093
407	501	0.008996603530464506
408	502	0.00937360964490402
409	502	0.009750290051232962
410	503	0.010133728883503447
411	503	0.010258141707519663
412	504	0.010379429371468695
413	504	0.010497396449350242
414	504	0.010624892091798671
415	505	0.010746526634045557
416	505	0.010867576530359307
417	505	0.010998154991239996
418	506	0.011120136411784658
419	506	0.01124426912653064
420	506	0.011377930405843562
421	506	0.011510261992104752
422	506	0.011644411024596242
423	506	0.011780377503318088
424	506	0.011918161428270228
425	506	0.012057762799452693
426	506	0.012199181616865515
427	506	0.012342417880508624
428	505	0.01248742273367854
429	505	0.012625646363264386
430	505	0.012765687439080535
431	505	0.01280837545446094
432	504	0.01284011156425767
433	503	0.01287823967821015
434	502	0.012922759796318324
435	502	0.012956694430736304
436	501	0.012992379740504668
437	500	0.013034457054428754
438	500	0.013074865120379815
439	500	0.013152200242855135
440	499	0.013220720911400223
441	498	0.013380948505016156
442	497	0.013546346700305663
443	495	0.013704925402382656
444	494	0.013860796661231798
445	493	0.014021838521754476
446	623	0.013961195929063246
447	624	0.012458545649896813
448	625	0.011042533492251747
449	625	0.009708762405567343
450	626	0.008458535224384334
451	628	0.007098198636914674
452	629	0.005855483068852688
453	630	0.004742276837339723
454	631	0.0038416963536683797
455	634	0.003062197534931778
456	637	0.0023710060884067894
457	643	0.0016445771994835245
458	645	0.001017000448751384
459	646	0.0005352387498464922
460	648	0.0002073940729782857
461	649	4.594507416294846e-05
462	649	4.057090514221691e-05
463	655	9.844500729020636e-05
464	656	2.5242308350935955e-06
465	657	5.62659242977266e-05
466	658	0.0002596700876781044
467	659	0.0006127367209762301
468	660	0.0011154658241920986
469	662	0.0017651092425278042
470	665	0.0025666543680284803
471	668	0.0034302467164168174
472	673	0.0044191142054540965
473	679	0.005533093981286816
474	679	0.006789122818744837
475	679	0.008199903301049036
476	679	0.009765435428199402
477	679	0.01148571920019594
478	679	0.013360754617038654
479	457	0.013409305306146667
480	456	0.013396663789362799
481	455	0.013554224665303974
482	454	0.013735725023449235
483	454	0.013908980907589514
484	453	0.014062877578626605
485	400	0.014062918367725585
486	400	0.012810798014855568
487	400	0.011680451449579646
488	400	0.010671878671897774
489	400	0.009785079681809992
490	400	0.009020054479316275
491	400	0.008413892966992393
492	400	0.007901087289599587
493	400	0.0074816374471378165
494	400	0.007155543439607109
495	400	0.006922805267007448
496	400	0.006783422929338877
497	400	0.006737396426601314
498	400	0.006784725758794854
499	400	0.006925410925919437
500	400	0.007159451927975062
501	400	0.007482146361063279
502	400	0.007878613479822575
503	401	0.008337534958484246
504	402	0.008811276115687041
505	371	0.009052299463860377
506	373	0.009245769553812523
507	374	0.009432399793539662
508	375	0.009626847006612867
509	377	0.009821782779027054
510	378	0.010017207113808874
511	380	0.009775206651675104
512	381	0.009528483436546694
513	382	0.009291694291429774
514	384	0.00905262519405864
515	385	0.008819825961875636
516	387	0.00858963238642544
517	388	0.008360823067176375
518	390	0.008139505013647066
519	391	0.007915418448603304
520	392	0.007696380345337337
521	393	0.007292466945894013
522	394	0.006900670262486524
523	395	0.0065209902951148735
524	395	0.00614932313142183
525	396	0.005785888626129374
526	397	0.005434570836872779
527	398	0.005095369763652017
528	399	0.004768285406467103
529	399	0.004462038573568683
530	399	0.004642814015731036
531	399	0.00429375988787785
532	399	0.003975644282702132
533	399	0.003688467200203904
534	399	0.0034322286403831435
535	399	0.003206928603239867
536	399	0.0030125670887740656
537	399	0.002849144096985756
538	399	0.0027166596278749185
539	399	0.0026151136814415647
540	399	0.002544506257685682
541	399	0.0023125416426019196
542	399	0.002117992644634397
543	399	0.0019608592637831187
544	399	0.0018411415000480762
545	399	0.0017588393534292742
546	399	0.0017139528239267096
547	399	0.0017064819115403904
548	399	0.0017364266162703135
549	399	0.001803786938116471
550	399	0.0019085628770788704
551	399	0.0019157740369841678
552	399	0.001988413264667792
553	399	0.0021264805601297226
554	399	0.0023299759233699757
555	399	0.00259889935438855
556	399	0.0029332508531854404
557	399	0.0033330304197606484
558	399	0.0037982380541141674
559	399	0.004328873756246012
560	399	0.004924937526156183
561	399	0.005551729327669809
562	399	0.0062588258737819044
563	399	0.007046227164492487
564	399	0.007913933199801524
565	399	0.008861943979709049
566	399	0.009890259504215031
567	399	0.010998879773319481
568	398	0.012158784271223305
569	397	0.01338404355243527
570	397	0.014665863523474569
571	396	0.015792871590127558
572	395	0.016961936602016066
573	394	0.018173058559140098
574	393	0.019426237461499643
575	392	0.020721473309094737
576	430	0.02196577676250888
577	430	0.022585088697276007
578	430	0.02329189373524282
579	430	0.024086191876409316
580	430	0.024967983120775496
581	430	0.025032289941844033
582	430	0.025155346203146075
583	430	0.025337151904681585
584	431	0.025549228000864125
585	433	0.02576366545403899
586	434	0.025972871254882193
587	435	0.026185293414331446
588	436	0.026400931932386823
589	438	0.026618646813752506
590	439	0.026831415036468475
591	440	0.026625405196453525
592	441	0.02641624008766198
593	441	0.02619986870706133
594	442	0.025982398063847455
595	442	0.025782149191338102
596	443	0.025556373013701894
597	444	0.025354902737271038
598	444	0.025138164937225215
599	445	0.024928389126372023
600	445	0.02472777383441745
601	446	0.023805798465382066
602	447	0.022924984346793645
603	447	0.022035498276880058
604	448	0.021179356480637138
605	448	0.02033750509215208
606	449	0.019506035618254678
607	449	0.01871181891119814
608	450	0.01790502175964624
609	450	0.017158439734018247
610	450	0.016475981317920205
611	450	0.015501200673174466
612	450	0.014594370698101765
613	450	0.013755491392702164
614	451	0.012886056673233637
615	451	0.012081641262670683
616	452	0.011292595157442437
617	452	0.010522643641716149
618	453	0.009813986150728178
619	453	0.009078498529838566
620	453	0.008410961578622011
621	454	0.00769068040392704
622	454	0.0069977382825829925
623	454	0.006371403289058699
624	455	0.005727948306859008
625	455	0.005141878869127587
626	456	0.004601591651450013
627	456	0.004055787769511464
628	456	0.0035765910153926586
629	457	0.0031131299902103465
630	457	0.0026741987918844183
631	457	0.0025042610486483777
632	458	0.0023505475961649283
633	458	0.002162675598611171
634	458	0.0019924325044922892
635	458	0.0018398183138082786
636	458	0.0017048330265591481
637	459	0.001568911332547821
638	459	0.001415991790980969
639	459	0.0012807011528489913
640	459	0.0011630394181518905
641	459	0.000977691651816598
642	460	0.0007834072959732814
643	460	0.0006066907705230573
644	460	0.00046225997371992193
645	461	0.0003390001467791114
646	461	0.00021730778565443625
647	461	0.0001279011531768504
648	461	7.078024934635415e-05
649	462	4.057090514221691e-05
650	463	0.00038598341145517045
651	463	0.00027758397757144125
652	464	0.0001775918606839458
653	464	9.565613843368042e-05
654	464	3.916629270878327e-05
655	464	8.12232350925419e-06
656	464	2.5242308350935955e-06
657	464	2.237201468630132e-05
658	464	6.766567506287762e-05
659	465	0.00012344303874170195
660	465	0.00019520041075174187
661	465	0.00022353693906400547
662	465	0.00025447912515829345
663	465	0.00028802696903460704
664	465	0.0003241804706929458
665	465	0.0003629396301333086
666	465	0.00040430444735569635
667	465	0.00044827492236011013
668	465	0.0004948510551465489
669	465	0.0005440328457150117
670	465	0.0005958202940655004
671	465	0.000622691141032222
672	465	0.0006502134024982554
673	465	0.0006783870784636031
674	465	0.0007072121689282639
675	465	0.0007366886738922364
676	465	0.0007668165933555236
677	465	0.0007975959273181237
678	465	0.0008290266757800354
679	465	0.0008611088387412619
