31
380	390	400	410	420	430	440	450	460	470	480	490	500	510	520	530	540	550	560	570	580	590	600	610	620	630	640	650	660	670	680
0.166666667	0.271929825	0.390350877	0.447368421	0.464912281	0.675438596	0.425438596	0.122807018	0.061403509	0.030701754	0.021929825	0.01754386	0.013157895	0.013157895	0.01754386	0.026315789	0.026315789	0.026315789	0.026315789	0.026315789	0.026315789	0.026315789	0.026315789	0.030701754	0.039473684	0.035087719	0.039473684	0.061403509	0.162280702	0.464912281	0.421052632
31
380	390	400	410	420	430	440	450	460	470	480	490	500	510	520	530	540	550	560	570	580	590	600	610	620	630	640	650	660	670	680
0.01754386	0.057017544	0.127192982	0.228070175	0.315789474	0.328947368	0.513157895	0.807017544	0.789473684	0.464912281	0.083333333	0.039473684	0.026315789	0.01754386	0.013157895	0	0	0	0	0.026315789	0.048245614	0.048245614	0.043859649	0.030701754	0.030701754	0.030701754	0.127192982	0.280701754	0.100877193	0.030701754	0.004385965
31
380	390	400	410	420	430	440	450	460	470	480	490	500	510	520	530	540	550	560	570	580	590	600	610	620	630	640	650	660	670	680
0.061403509	0.114035088	0.175438596	0.228070175	0.293859649	0.307017544	0.289473684	0.442982456	0.644736842	0.530701754	0.5	0.706140351	0.596491228	0.320175439	0.149122807	0.052631579	0	0	0	0	0	0	0	0	0	0	0	0	0	0	0