370	502
371	502
372	503
382	516
383	516
384	517
385	518
386	523
387	524
388	525
389	526
390	527
391	527
392	553
393	547
394	547
395	547
396	547
397	547
398	547
399	547
400	497
401	498
402	498
403	499
404	499
405	500
406	500
407	501
450	626
451	628
452	629
453	630
454	631
455	634
456	637
457	643
458	645
459	646
460	648
461	649
462	649
463	655
464	656
465	657
466	658
467	659
468	660
469	662
470	665
471	668
472	673
473	679
474	679
475	679
491	400
492	400
493	400
494	400
495	400
496	400
497	400
498	400
499	400
500	400
501	400
502	400
503	401
504	402
515	385
516	387
517	388
518	390
519	391
520	392
521	393
522	394
523	395
524	395
525	396
526	397
527	398
528	399
529	399
530	399
531	399
532	399
533	399
534	399
535	399
536	399
537	399
538	399
539	399
540	399
541	399
542	399
543	399
544	399
545	399
546	399
547	399
548	399
549	399
550	399
551	399
552	399
553	399
554	399
555	399
556	399
557	399
558	399
559	399
560	399
561	399
562	399
563	399
564	399
565	399
620	453
621	454
622	454
623	454
624	455
625	455
626	456
627	456
628	456
629	457
630	457
631	457
632	458
633	458
634	458
635	458
636	458
637	459
638	459
639	459
640	459
641	459
642	460
643	460
644	460
645	461
646	461
647	461
648	461
649	462
650	463
651	463
652	464
653	464
654	464
655	464
656	464
657	464
658	464
659	465
660	465
661	465
662	465
663	465
664	465
665	465
666	465
667	465
668	465
669	465
670	465
671	465
672	465
673	465
674	465
675	465
676	465
677	465
678	465
679	465